…
``` r
brfss_clean %>% 
  filter(year == 2002) %>% 
  group_by(locationabbr) %>% 
  summarise(n = n()) %>% 
  filter(n>6)
```

    ## # A tibble: 36 × 2
    ##    locationabbr     n
    ##    <chr>        <int>
    ##  1 AZ              10
    ##  2 CO              20
    ##  3 CT              35
    ##  4 DE              15
    ##  5 FL              35
    ##  6 GA              15
    ##  7 HI              20
    ##  8 ID              10
    ##  9 IL              15
    ## 10 IN              10
    ## # … with 26 more rows

``` r
brfss_clean %>% 
  filter(year == 2010) %>% 
  group_by(locationabbr) %>% 
  summarise(n = n()) %>% 
  filter(n>6)
```

    ## # A tibble: 45 × 2
    ##    locationabbr     n
    ##    <chr>        <int>
    ##  1 AL              15
    ##  2 AR              15
    ##  3 AZ              15
    ##  4 CA              60
    ##  5 CO              35
    ##  6 CT              25
    ##  7 DE              15
    ##  8 FL             205
    ##  9 GA              20
    ## 10 HI              20
    ## # … with 35 more rows
…
